Short demonstration
…
First, a population is build:

pop <- with(sample.ped, load_individuals(pid = id, 
                                         is_male = (sex == 1), 
                                         pid_mom = mother, 
                                         pid_dad = father,
                                         progress = FALSE))

We check number of children:

children_count <- as_data_frame(get_number_of_children(pop, progress = FALSE))
children_count %>% filter(boys_n > 0 | girls_n > 0)

## # A tibble: 28 × 3
##      pid boys_n girls_n
##    <int>  <int>   <int>
## 1    120      3       2
## 2    119      3       2
## 3    118      0       2
## 4    117      1       0
## 5    116      1       0
## 6    115      2       0
## 7    114      2       0
## 8    209      2       1
## 9    112      0       2
## 10   208      2       1
## # ... with 18 more rows
…
Example with location information

We add artificial ETRS89 east and north coordinates (or a similar coordinate system). Remember, distances are Euclidean distances were ETRS89 east (etrs89e) and north (etrs89n) are regarded as \(x\) and \(y\) coordinates. Also, recall that the unit of the coordinates determine the unit of the distances.

set.seed(1) # For reproducibility
sample.ped.coords <- as_data_frame(cbind(sample.ped, tibble(etrs89e = runif(nrow(sample.ped), 250, 650), etrs89n = runif(nrow(sample.ped), 650, 750))))
sample.ped.coords

## # A tibble: 55 × 9
##      ped    id father mother   sex affected avail  etrs89e  etrs89n
## *  <int> <int>  <int>  <int> <int>    <int> <int>    <dbl>    <dbl>
## 1      1   101      0      0     1        0     0 356.2035 659.9466
## 2      1   102      0      0     2        1     0 398.8496 681.6272
## 3      1   103    135    136     1        1     0 479.1413 701.8634
## 4      1   104      0      0     2        0     0 613.2831 716.2005
## 5      1   105      0      0     1       NA     0 330.6728 690.6830
## 6      1   106      0      0     2       NA     0 609.3559 741.2876
## 7      1   107      0      0     1        1     0 627.8701 679.3603
## 8      1   108      0      0     2        0     0 514.3191 695.9066
## 9      1   109    101    102     2        0     1 501.6456 683.2395
## 10     1   110    103    104     1        1     1 274.7145 715.0870
## # ... with 45 more rows
…
